{
  "routes": [
    {
      "method": "GET",
      "path": "/type-of-rooms",
      "handler": "type-of-rooms.find",
      "config": {
        "policies": []
      }
    },
    {
      "method": "GET",
      "path": "/type-of-rooms/count",
      "handler": "type-of-rooms.count",
      "config": {
        "policies": []
      }
    },
    {
      "method": "GET",
      "path": "/type-of-rooms/:id",
      "handler": "type-of-rooms.findOne",
      "config": {
        "policies": []
      }
    },
    {
      "method": "POST",
      "path": "/type-of-rooms",
      "handler": "type-of-rooms.create",
      "config": {
        "policies": []
      }
    },
    {
      "method": "PUT",
      "path": "/type-of-rooms/:id",
      "handler": "type-of-rooms.update",
      "config": {
        "policies": []
      }
    },
    {
      "method": "DELETE",
      "path": "/type-of-rooms/:id",
      "handler": "type-of-rooms.delete",
      "config": {
        "policies": []
      }
    }
  ]
}
